…
### Answer

Based on the drag and drop template:

``` r
papers_select <- select(papers, journal, year, cites, title, au1)

# Let's see our data set:
papers_select
```

    ## # A tibble: 4,182 x 5
    ##    journal          year cites title                                au1         
    ##    <chr>           <dbl> <dbl> <chr>                                <chr>       
    ##  1 American-Econo~  1993    31 Jeux Sans Frontieres:  Tax Competit~ Kanbur,-Ravi
    ##  2 American-Econo~  1993     4 Changes in Economic Instability in ~ James,-John~
    ##  3 American-Econo~  1993    28 Factor Shares and Savings in Endoge~ Bertola,-Gi~
    ##  4 American-Econo~  1993    10 Strategic Discipline in Monetary Po~ Garfinkel,-~
    ##  5 American-Econo~  1993     5 Will Affirmative-Action Policies El~ Coate,-Step~
    ##  6 American-Econo~  1993    21 Mergers and Market Power:  Evidence~ Kim,-E.-Han 
    ##  7 American-Econo~  1993    45 A Search-Theoretic Approach to Mone~ Kiyotaki,-N~
    ##  8 American-Econo~  1993    13 An Experimental Test of the Public-~ Andreoni,-J~
    ##  9 American-Econo~  1993     5 A General Experiment on Bargaining ~ Kahn,-Lawre~
    ## 10 American-Econo~  1993     2 Nominal-Contracting Theories of Une~ Keane,-Mich~
    ## # ... with 4,172 more rows

## Quesion 18

Let’s take a look at some of the most popular papers. Using the
`filter()` method, how many records exist where there are greater than
or equal to 100 citations?

### Answer

``` r
papers_select %>%
  filter(cites >= 100)
```

    ## # A tibble: 205 x 5
    ##    journal          year cites title                                au1         
    ##    <chr>           <dbl> <dbl> <chr>                                <chr>       
    ##  1 American-Econo~  1994   117 Is Inequality Harmful for Growth?    Persson,-To~
    ##  2 Econometrica     1971   149 Further Evidence on the Estimation ~ Nerlove,-Ma~
    ##  3 Econometrica     1971   170 The Use of Variance Components Mode~ Maddala,-G.~
    ##  4 Econometrica     1971   155 Investment Under Uncertainty         Lucas,-Robe~
    ##  5 Econometrica     1971   139 Some Statistical Models for Limited~ Cragg,-John~
    ##  6 Econometrica     1971   108 Identification in Parametric Models  Rothenberg,~
    ##  7 Econometrica     1972   164 Methods of Estimation for Markets i~ Fair,-Ray-C.
    ##  8 Econometrica     1972   150 Existence of Equilibrium of Plans, ~ Radner,-Roy 
    ##  9 Econometrica     1973   361 Manipulation of Voting Schemes: A G~ Gibbard,-Al~
    ## 10 Econometrica     1973   107 On a Class of Equilibrium Condition~ Kramer,-Ger~
    ## # ... with 195 more rows
…
### Answer

Based on the drag-and-drop template:

``` r
paper_female <- select(papers, contains("female"))

paper_female
```

    ## # A tibble: 4,182 x 3
    ##    female1 female2 female3
    ##      <dbl>   <dbl>   <dbl>
    ##  1       0       0      NA
    ##  2       0      NA      NA
    ##  3       0      NA      NA
    ##  4       1       0      NA
    ##  5       0       0      NA
    ##  6       0       0      NA
    ##  7       0       0      NA
    ##  8       0      NA      NA
    ##  9       0       0      NA
    ## 10       0      NA      NA
    ## # ... with 4,172 more rows
