…
``` r
library(tidyverse)
library(utils)

gender_data <- read_csv("Gender_StatsData.csv")
```

With tibbles we can view the first few observations without using
`head()`:

``` r
gender_data
```

    ## # A tibble: 7,101 x 64
    ##       X1 Country.Name Country.Code Indicator.Name Indicator.Code X1960 X1961
    ##    <dbl> <chr>        <chr>        <chr>          <chr>          <dbl> <dbl>
    ##  1     1 Arab World   ARB          Adolescent fe~ SP.ADO.TFRT    134.  135. 
    ##  2     2 Arab World   ARB          Age at first ~ SP.DYN.SMAM.FE  NA    NA  
    ##  3     3 Arab World   ARB          Age at first ~ SP.DYN.SMAM.MA  NA    NA  
    ##  4     4 Arab World   ARB          Age dependenc~ SP.POP.DPND     88.2  89.6
    ##  5     5 Arab World   ARB          Age populatio~ SP.POP.AG00.F~  NA    NA  
    ##  6     6 Arab World   ARB          Age populatio~ SP.POP.AG00.M~  NA    NA  
    ##  7     7 Arab World   ARB          Age populatio~ SP.POP.AG01.F~  NA    NA  
    ##  8     8 Arab World   ARB          Age populatio~ SP.POP.AG02.F~  NA    NA  
    ##  9     9 Arab World   ARB          Age populatio~ SP.POP.AG02.M~  NA    NA  
    ## 10    10 Arab World   ARB          Age populatio~ SP.POP.AG03.F~  NA    NA  
    ## # ... with 7,091 more rows, and 57 more variables: X1962 <dbl>, X1963 <dbl>,
    ## #   X1964 <dbl>, X1965 <dbl>, X1966 <dbl>, X1967 <dbl>, X1968 <dbl>,
    ## #   X1969 <dbl>, X1970 <dbl>, X1971 <dbl>, X1972 <dbl>, X1973 <dbl>,
    ## #   X1974 <dbl>, X1975 <dbl>, X1976 <dbl>, X1977 <dbl>, X1978 <dbl>,
    ## #   X1979 <dbl>, X1980 <dbl>, X1981 <dbl>, X1982 <dbl>, X1983 <dbl>,
    ## #   X1984 <dbl>, X1985 <dbl>, X1986 <dbl>, X1987 <dbl>, X1988 <dbl>,
    ## #   X1989 <dbl>, X1990 <dbl>, X1991 <dbl>, X1992 <dbl>, X1993 <dbl>,
    ## #   X1994 <dbl>, X1995 <dbl>, X1996 <dbl>, X1997 <dbl>, X1998 <dbl>,
    ## #   X1999 <dbl>, X2000 <dbl>, X2001 <dbl>, X2002 <dbl>, X2003 <dbl>,
…
### Answer

``` r
teenager_fr <- filter(
  gender_data,
  Indicator.Code == "SP.ADO.TFRT"
)

teenager_fr
```

    ## # A tibble: 263 x 64
    ##       X1 Country.Name Country.Code Indicator.Name Indicator.Code X1960 X1961
    ##    <dbl> <chr>        <chr>        <chr>          <chr>          <dbl> <dbl>
    ##  1     1 Arab World   ARB          Adolescent fe~ SP.ADO.TFRT    134.  135. 
    ##  2    28 Caribbean s~ CSS          Adolescent fe~ SP.ADO.TFRT    147.  147. 
    ##  3    55 Central Eur~ CEB          Adolescent fe~ SP.ADO.TFRT     46.1  45.4
    ##  4    82 Early-demog~ EAR          Adolescent fe~ SP.ADO.TFRT    116.  117. 
    ##  5   109 East Asia &~ EAS          Adolescent fe~ SP.ADO.TFRT     65.9  65.0
    ##  6   136 East Asia &~ EAP          Adolescent fe~ SP.ADO.TFRT     75.2  74.5
    ##  7   163 East Asia &~ TEA          Adolescent fe~ SP.ADO.TFRT     76.6  75.9
    ##  8   190 Euro area    EMU          Adolescent fe~ SP.ADO.TFRT     27.1  28.2
    ##  9   217 Europe & Ce~ ECS          Adolescent fe~ SP.ADO.TFRT     41.2  41.9
    ## 10   244 Europe & Ce~ ECA          Adolescent fe~ SP.ADO.TFRT     47.3  47.8
    ## # ... with 253 more rows, and 57 more variables: X1962 <dbl>, X1963 <dbl>,
    ## #   X1964 <dbl>, X1965 <dbl>, X1966 <dbl>, X1967 <dbl>, X1968 <dbl>,
    ## #   X1969 <dbl>, X1970 <dbl>, X1971 <dbl>, X1972 <dbl>, X1973 <dbl>,
    ## #   X1974 <dbl>, X1975 <dbl>, X1976 <dbl>, X1977 <dbl>, X1978 <dbl>,
    ## #   X1979 <dbl>, X1980 <dbl>, X1981 <dbl>, X1982 <dbl>, X1983 <dbl>,
    ## #   X1984 <dbl>, X1985 <dbl>, X1986 <dbl>, X1987 <dbl>, X1988 <dbl>,
    ## #   X1989 <dbl>, X1990 <dbl>, X1991 <dbl>, X1992 <dbl>, X1993 <dbl>,
    ## #   X1994 <dbl>, X1995 <dbl>, X1996 <dbl>, X1997 <dbl>, X1998 <dbl>,
    ## #   X1999 <dbl>, X2000 <dbl>, X2001 <dbl>, X2002 <dbl>, X2003 <dbl>,
…
What is the equivalent base-R function ? (select one)

(Choices are not shown here.)

### Answer

Out of the three alternatives presented, `subset()` is the equivalent
base-R function to dplyr’s `filter()`. The following code gives the same
result as using `filter()` above.

``` r
subset(gender_data, Indicator.Code == "SP.ADO.TFRT")
```

    ## # A tibble: 263 x 64
    ##       X1 Country.Name Country.Code Indicator.Name Indicator.Code X1960 X1961
    ##    <dbl> <chr>        <chr>        <chr>          <chr>          <dbl> <dbl>
    ##  1     1 Arab World   ARB          Adolescent fe~ SP.ADO.TFRT    134.  135. 
    ##  2    28 Caribbean s~ CSS          Adolescent fe~ SP.ADO.TFRT    147.  147. 
    ##  3    55 Central Eur~ CEB          Adolescent fe~ SP.ADO.TFRT     46.1  45.4
    ##  4    82 Early-demog~ EAR          Adolescent fe~ SP.ADO.TFRT    116.  117. 
    ##  5   109 East Asia &~ EAS          Adolescent fe~ SP.ADO.TFRT     65.9  65.0
    ##  6   136 East Asia &~ EAP          Adolescent fe~ SP.ADO.TFRT     75.2  74.5
    ##  7   163 East Asia &~ TEA          Adolescent fe~ SP.ADO.TFRT     76.6  75.9
    ##  8   190 Euro area    EMU          Adolescent fe~ SP.ADO.TFRT     27.1  28.2
    ##  9   217 Europe & Ce~ ECS          Adolescent fe~ SP.ADO.TFRT     41.2  41.9
    ## 10   244 Europe & Ce~ ECA          Adolescent fe~ SP.ADO.TFRT     47.3  47.8
    ## # ... with 253 more rows, and 57 more variables: X1962 <dbl>, X1963 <dbl>,
    ## #   X1964 <dbl>, X1965 <dbl>, X1966 <dbl>, X1967 <dbl>, X1968 <dbl>,
    ## #   X1969 <dbl>, X1970 <dbl>, X1971 <dbl>, X1972 <dbl>, X1973 <dbl>,
    ## #   X1974 <dbl>, X1975 <dbl>, X1976 <dbl>, X1977 <dbl>, X1978 <dbl>,
    ## #   X1979 <dbl>, X1980 <dbl>, X1981 <dbl>, X1982 <dbl>, X1983 <dbl>,
    ## #   X1984 <dbl>, X1985 <dbl>, X1986 <dbl>, X1987 <dbl>, X1988 <dbl>,
    ## #   X1989 <dbl>, X1990 <dbl>, X1991 <dbl>, X1992 <dbl>, X1993 <dbl>,
    ## #   X1994 <dbl>, X1995 <dbl>, X1996 <dbl>, X1997 <dbl>, X1998 <dbl>,
    ## #   X1999 <dbl>, X2000 <dbl>, X2001 <dbl>, X2002 <dbl>, X2003 <dbl>,
…
